Data Wrangling
…
library(CASdatasets)

CAS here stands for Computational Actuarial Science with R, by several authors and edited by Arthur Charpentier.

Brazilian Vehicle Insurance Data

data(brvehins1a, package = 'CASdatasets')
brvehins1a <- as_tibble(brvehins1a)

When printed to the console, tibbles generate output that is more user friendly than data frames when the data set is large.

print(brvehins1a)

## # A tibble: 393,071 x 23
##   Gender DrivAge VehYear VehModel       VehGroup Area  State
##   <fct>  <fct>     <int> <fct>          <fct>    <fct> <fct>
## 1 Female >55        1997 Gm - Chevrole~ Gm Chev~ Inte~ Rio ~
## 2 Female 36-45      2010 Gm - Chevrole~ Gm Chev~ Mara~ Mara~
## 3 Female 18-25      2008 Vw - Volkswag~ Vw Volk~ Mato~ Mato~
## 4 Male   >55        2004 Harley-davids~ Harley-~ Met.~ Rio ~
## 5 Male   36-45      2009 Volvo - Fh 44~ Volvo C~ Ribe~ Sao ~
## # ... with 393,066 more rows, and 16 more variables:
## #   StateAb <fct>, ExposTotal <dbl>, ExposFireRob <dbl>,
## #   PremTotal <dbl>, PremFireRob <dbl>, SumInsAvg <dbl>,
## #   ClaimNbRob <dbl>, ClaimNbPartColl <dbl>,
## #   ClaimNbTotColl <dbl>, ClaimNbFire <dbl>,
## #   ClaimNbOther <dbl>, ClaimAmountRob <dbl>,
## #   ClaimAmountPartColl <dbl>, ...

Select columns using select

brvehins1a %>% 
  select(ExposTotal, PremTotal)

## # A tibble: 393,071 x 2
##   ExposTotal PremTotal
##        <dbl>     <dbl>
## 1       1.01      743.
## 2       3        5026.
## 3       1.01      916.
## 4       1.45     1602.
## 5       4.55    53031.
## # ... with 393,066 more rows
…
is.na

%in%

stringr::str_detect and stringr::str_starts

And many more

Simple examples

brvehins1a %>% 
  filter(Gender == 'Male')

## # A tibble: 171,089 x 23
##   Gender DrivAge VehYear VehModel       VehGroup Area  State
##   <fct>  <fct>     <int> <fct>          <fct>    <fct> <fct>
## 1 Male   >55        2004 Harley-davids~ Harley-~ Met.~ Rio ~
## 2 Male   36-45      2009 Volvo - Fh 44~ Volvo C~ Ribe~ Sao ~
## 3 Male   26-35      1998 Vw - Volkswag~ Vw Volk~ Met.~ Rio ~
## 4 Male   18-25      1999 Gm - Chevrole~ Gm Chev~ Gran~ Sao ~
## 5 Male   36-45      2010 Volvo - C30 2~ Volvo -~ Tria~ Mina~
## # ... with 171,084 more rows, and 16 more variables:
## #   StateAb <fct>, ExposTotal <dbl>, ExposFireRob <dbl>,
## #   PremTotal <dbl>, PremFireRob <dbl>, SumInsAvg <dbl>,
## #   ClaimNbRob <dbl>, ClaimNbPartColl <dbl>,
## #   ClaimNbTotColl <dbl>, ClaimNbFire <dbl>,
## #   ClaimNbOther <dbl>, ClaimAmountRob <dbl>,
## #   ClaimAmountPartColl <dbl>, ...
brvehins1a %>% 
  filter(
    PremTotal > 250e3,
    VehYear == 2011,
    Gender != 'Corporate')

Using stringr functions with filter

brvehins1a %>% 
  filter(
    PremTotal > 250e3,
    VehYear == 2011,
    !str_starts(Gender, 'C|c'))

## # A tibble: 12 x 23
##   Gender DrivAge VehYear VehModel       VehGroup Area  State
##   <fct>  <fct>     <int> <fct>          <fct>    <fct> <fct>
## 1 Female 26-35      2011 Ford - Ka 1.0~ Ford Ka~ Met.~ Sao ~
## 2 Female 26-35      2011 Outros         Outros   Goias Goias
## 3 Female 46-55      2011 Outros         Outros   Met.~ Sao ~
## 4 Male   >55        2011 Outros         Outros   Pern~ Pern~
## 5 Male   36-45      2011 Vw - Volkswag~ Vw Volk~ Ribe~ Sao ~
## # ... with 7 more rows, and 16 more variables:
## #   StateAb <fct>, ExposTotal <dbl>, ExposFireRob <dbl>,
## #   PremTotal <dbl>, PremFireRob <dbl>, SumInsAvg <dbl>,
## #   ClaimNbRob <dbl>, ClaimNbPartColl <dbl>,
## #   ClaimNbTotColl <dbl>, ClaimNbFire <dbl>,
## #   ClaimNbOther <dbl>, ClaimAmountRob <dbl>,
## #   ClaimAmountPartColl <dbl>, ...
…
## # A tibble: 2 x 2
##   ExposTotal PremTotal
##        <dbl>     <dbl>
## 1       0.93      589.
## 2      10.4     12908.

Adding computed colums using mutate

brvehins1a %>%
  select(ExposTotal, PremTotal) %>% 
  mutate(
    PremPerExpos = PremTotal / ExposTotal,
    PremPerExpos_e3 = PremPerExpos / 1000)

## # A tibble: 393,071 x 4
##   ExposTotal PremTotal PremPerExpos PremPerExpos_e3
##        <dbl>     <dbl>        <dbl>           <dbl>
## 1       1.01      743.         735.           0.735
## 2       3        5026.        1675.           1.68 
## 3       1.01      916.         907.           0.907
## 4       1.45     1602.        1105.           1.10 
## 5       4.55    53031.       11655.          11.7  
## # ... with 393,066 more rows

Rename columns using rename

brvehins1a %>% 
  select(DrivAge, State) %>% 
  rename(
    DriverAge = DrivAge,
    Province = State) %>% 
  filter(Province == 'Sao Paulo')

## # A tibble: 91,983 x 2
##   DriverAge Province 
##   <fct>     <fct>    
## 1 36-45     Sao Paulo
## 2 18-25     Sao Paulo
## 3 <NA>      Sao Paulo
## 4 36-45     Sao Paulo
## 5 <NA>      Sao Paulo
## # ... with 91,978 more rows

Summary data using group_by and summarize

brvehins1a %>% 
  group_by(State) %>% 
  summarize(
    PremiumPerState = sum(PremTotal),
    ExposuresPerState = sum(ExposTotal)) %>% 
  mutate(
    AvgPremPerExposure = PremiumPerState / ExposuresPerState)

## # A tibble: 28 x 4
##   State    PremiumPerState ExposuresPerSta~ AvgPremPerExpos~
##   <fct>              <dbl>            <dbl>            <dbl>
## 1 Acre            1899093.            1120.            1696.
## 2 Alagoas        10498583.            8473.            1239.
## 3 Amapa           1044331.             626.            1670.
## 4 Amazonas        6387090.            4737.            1348.
## 5 Bahia          56739968.           44326.            1280.
## # ... with 23 more rows

Summarized counts using n

brvehins1a %>% 
  group_by(State) %>% 
  summarize(
    StateCount = n())

## # A tibble: 28 x 2
##   State    StateCount
##   <fct>         <int>
## 1 Acre           1408
## 2 Alagoas        4988
## 3 Amapa           980
## 4 Amazonas       3848
## 5 Bahia         11520
## # ... with 23 more rows
…
full_join

anti_join

semi_join

Population of States in Brazil

Lets say we wanted to do a crude market penetration analysis and we have a second data set with population by State.

pop <- read.csv('brazil-states.csv') %>% as_tibble
print(pop)

## # A tibble: 27 x 2
##   State    PopThousands
##   <chr>           <int>
## 1 Acre              888
## 2 Alagoas          3334
## 3 Amapa             838
## 4 Amazonas         4147
## 5 Bahia           14897
## # ... with 22 more rows
…
## [1] 210.017

inner_join

An inner join will return records only when there is a match between rows in both data sets. Joins will match automatically on columns with the same names.

count_by_state <- brvehins1 %>% 
  group_by(State) %>% 
  summarize(Count = n())

count_by_state %>% 
  inner_join(pop)

## # A tibble: 26 x 3
##   State    Count PopThousands
##   <chr>    <int>        <int>
## 1 Acre      6822          888
## 2 Alagoas  24859         3334
## 3 Amapa     5318          838
## 4 Amazonas 20015         4147
## 5 Bahia    58159        14897
## # ... with 21 more rows

Specify join parameters

However, you can explicitly state the join-by column(s). This is safer sometimes. Also, it is the only way to do a join if the columns you want to join on have different names.

count_by_state %>% 
  inner_join(pop, by = 'State')

## # A tibble: 26 x 3
##   State    Count PopThousands
##   <chr>    <int>        <int>
## 1 Acre      6822          888
## 2 Alagoas  24859         3334
## 3 Amapa     5318          838
## 4 Amazonas 20015         4147
## 5 Bahia    58159        14897
## # ... with 21 more rows

Join with different column names

count_by_prov <- brvehins1 %>% 
  group_by(State) %>% 
  summarize(Count = n()) %>% 
  rename(Province = State)

count_by_prov %>% 
  inner_join(pop, by = c('Province' = 'State'))

## # A tibble: 26 x 3
##   Province Count PopThousands
##   <chr>    <int>        <int>
## 1 Acre      6822          888
## 2 Alagoas  24859         3334
## 3 Amapa     5318          838
## 4 Amazonas 20015         4147
## 5 Bahia    58159        14897
## # ... with 21 more rows
…
Pivoting data

Sometimes you want to turn columns into rows or groups of rows into columns. This is called pivoting.

tall_data <- brvehins1 %>% 
  group_by(Gender, State) %>% 
  summarize(PremTotal = sum(PremTotal)) %>% 
  drop_na()

tall_data

## # A tibble: 81 x 3
## # Groups:   Gender [3]
##   Gender    State    PremTotal
##   <fct>     <fct>        <dbl>
## 1 Corporate Acre      1857874.
## 2 Corporate Alagoas   6370776.
## 3 Corporate Amapa     1568820.
## 4 Corporate Amazonas  8298949.
## 5 Corporate Bahia    46443173.
## # ... with 76 more rows
Wide data

wide_data <- tall_data %>% 
  pivot_wider(
    id_cols = 'State',
    names_from = 'Gender',
    values_from = 'PremTotal') %>% 
  mutate(
    TotalPrem = Corporate + Female + Male,
    CorporateProp = Corporate / TotalPrem) %>% 
  arrange(desc(CorporateProp))

wide_data

## # A tibble: 27 x 6
##   State      Corporate Female   Male TotalPrem CorporateProp
##   <fct>          <dbl>  <dbl>  <dbl>     <dbl>         <dbl>
## 1 Rondonia      9.83e5 1.10e6 1.32e6    3.40e6         0.289
## 2 Amapa         1.57e6 1.81e6 2.37e6    5.74e6         0.273
## 3 Amazonas      8.30e6 1.06e7 1.30e7    3.20e7         0.260
## 4 Minas Ger~    1.53e8 1.84e8 2.64e8    6.01e8         0.254
## 5 Santa Cat~    7.80e7 1.03e8 1.45e8    3.26e8         0.239
## # ... with 22 more rows
…
